<?xml version="1.0" encoding="UTF-8"?>
<svg width="64" height="64" version="1.1" viewBox="0 0 16.933 16.933" xmlns="http://www.w3.org/2000/svg">
  <path d="m2.2608 3.7042c-0.66608 0-1.2025 0.53643-1.2025 1.2025v7.12c0 0.66608 0.53643 1.2025 1.2025 1.2025h12.412c0.66608 0 1.2025-0.53643 1.2025-1.2025v-7.12c0-0.66608-0.53643-1.2025-1.2025-1.2025h-12.412zm8.4341 1.1064c0.15537 0 0.31534 0.012173 0.47956 0.036174 0.16422 0.022738 0.33394 0.057648 0.50953 0.10439v0.59841c-0.15537-0.069476-0.30696-0.12173-0.45475-0.1571-0.1478-0.03537-0.28721-0.053227-0.41858-0.053227-0.17432 0-0.30317 0.024345-0.38654 0.072347-0.083371 0.048002-0.12506 0.12219-0.12506 0.22324 0 0.075792 0.027618 0.13533 0.083199 0.17828 0.056844 0.041686 0.15916 0.077687 0.30696 0.108l0.31109 0.062528c0.31454 0.06316 0.53812 0.15899 0.67076 0.28784 0.13264 0.12885 0.19895 0.31236 0.19895 0.54984 0 0.31201-0.092846 0.54427-0.27854 0.69712-0.18443 0.15158-0.46675 0.22738-0.84698 0.22738-0.17938 0-0.35938-0.017053-0.54002-0.05116-0.18064-0.034106-0.36145-0.084462-0.54209-0.15141v-0.61598c0.18064 0.096003 0.35496 0.16881 0.52297 0.21807 0.16927 0.048002 0.33222 0.07183 0.48886 0.07183 0.15916 0 0.28123-0.026527 0.36587-0.079582 0.084635-0.053054 0.12661-0.12885 0.12661-0.22738 0-0.088424-0.028709-0.15664-0.086816-0.20464-0.056844-0.048002-0.17134-0.090778-0.34313-0.12867l-0.28215-0.062528c-0.28296-0.060634-0.49029-0.15727-0.62167-0.2899-0.13011-0.13264-0.19534-0.31155-0.19534-0.5364 0-0.28169 0.090951-0.49851 0.27285-0.65009 0.1819-0.15158 0.44338-0.22738 0.78445-0.22738zm-9.1064 0.05116h1.9689v0.55139h-1.2392v0.5271h1.1653v0.55139h-1.1653v1.1994h-0.72967v-2.8293zm2.651 0h0.72967v2.2779h1.2805v0.55139h-2.0102v-2.8293zm3.1833 0h0.86971l1.048 2.8293h-0.73329l-0.17828-0.51573h-1.1405l-0.18035 0.51573h-0.73329l1.048-2.8293zm5.0875 0h0.72967v1.0785h1.0759v-1.0785h0.72967v2.8293h-0.72967v-1.1994h-1.0759v1.1994h-0.72967v-2.8293zm-4.6519 0.66353-0.38809 1.1255h0.77463l-0.38654-1.1255zm1.4867 3.8514h0.29972v0.26355h-0.30334c-0.11369 0-0.19293 0.022795-0.23771 0.06873-0.043638 0.045935-0.065112 0.12862-0.065112 0.24805v0.17053h0.86971v-0.13436c0-0.21474 0.049954-0.37058 0.14986-0.46819 0.099908-0.098759 0.25838-0.14831 0.47542-0.14831h0.29972v0.26355h-0.30334c-0.11369 0-0.19293 0.022795-0.23771 0.06873-0.043638 0.045935-0.065112 0.12862-0.065112 0.24805v0.17053h0.52193v0.2465h-0.52193v1.6831h-0.31884v-1.6831h-0.86971v1.6831h-0.31884v-1.6831h-0.30334v-0.2465h0.30334v-0.13436c0-0.21474 0.049954-0.37058 0.14986-0.46819 0.099908-0.098759 0.25838-0.14831 0.47542-0.14831zm-2.0877 0.70435c0.27561 0 0.49225 0.089573 0.64957 0.26872s0.23564 0.42719 0.23564 0.74414c0 0.3158-0.078318 0.56385-0.23564 0.74414-0.15733 0.17914-0.37397 0.26872-0.64957 0.26872-0.27676 0-0.4938-0.089573-0.65112-0.26872-0.15618-0.18029-0.23409-0.42834-0.23409-0.74414 0-0.31695 0.077917-0.565 0.23409-0.74414 0.15733-0.17914 0.37437-0.26872 0.65112-0.26872zm0 0.26872c-0.16996 0-0.30432 0.066777-0.40308 0.19999-0.098759 0.13206-0.14831 0.31333-0.14831 0.54415 0 0.23082 0.04915 0.41301 0.14676 0.54622 0.098759 0.13206 0.23352 0.19792 0.40463 0.19792 0.16881 0 0.30277-0.066261 0.40153-0.19947 0.098759-0.13321 0.14779-0.315 0.14779-0.54467 0-0.22852-0.049035-0.40939-0.14779-0.5426-0.098759-0.13436-0.23272-0.20154-0.40153-0.20154z" fill="#b0b0b0" stroke-width=".26482"/>
</svg>
