<?xml version="1.0" encoding="UTF-8"?>
<svg width="64" height="64" version="1.1" viewBox="0 0 16.933 16.933" xmlns="http://www.w3.org/2000/svg">
  <path d="m2.2608 3.7042c-0.66608 0-1.2025 0.53643-1.2025 1.2025v7.12c0 0.66608 0.53643 1.2025 1.2025 1.2025h12.412c0.66608 0 1.2025-0.53643 1.2025-1.2025v-7.12c0-0.66608-0.53643-1.2025-1.2025-1.2025h-12.412zm4.9775 0.84491c0.1695 0 0.34382 0.013091 0.52297 0.039274 0.17914 0.024805 0.36449 0.062701 0.55604 0.11369v0.65319c-0.1695-0.075792-0.33486-0.13298-0.49609-0.17157-0.16123-0.038585-0.3135-0.057878-0.45682-0.057878-0.19017 0-0.33073 0.026183-0.42168 0.078548-0.09095 0.052365-0.13643 0.13367-0.13643 0.24391 0 0.082682 0.030317 0.14745 0.09095 0.1943 0.062012 0.045475 0.17363 0.08475 0.33486 0.11782l0.339 0.068213c0.34313 0.068902 0.58704 0.17363 0.73174 0.31419 0.14469 0.14056 0.21704 0.34038 0.21704 0.59945 0 0.34037-0.10129 0.59394-0.30386 0.76068-0.20119 0.16536-0.50919 0.24805-0.92397 0.24805-0.19568 0-0.39205-0.018604-0.58911-0.055811-0.19706-0.037207-0.39412-0.092329-0.59118-0.16536v-0.67179c0.19706 0.10473 0.38723 0.18397 0.57051 0.23771 0.18466 0.052365 0.36242 0.078548 0.5333 0.078548 0.17363 0 0.30661-0.028939 0.39894-0.086816 0.092328-0.057878 0.13849-0.14056 0.13849-0.24805 0-0.096462-0.031695-0.17088-0.095085-0.22324-0.062012-0.052365-0.18672-0.099219-0.37414-0.14056l-0.30799-0.068213c-0.30868-0.066146-0.53468-0.17157-0.67799-0.31626-0.14194-0.14469-0.21291-0.33969-0.21291-0.58498 0-0.3073 0.099219-0.54364 0.29766-0.709 0.19844-0.16536 0.48369-0.24805 0.85576-0.24805zm3.39 0c0.49609 0 0.8847 0.14194 1.1658 0.42581 0.28112 0.28388 0.42168 0.67593 0.42168 1.1762 0 0.49885-0.14056 0.89021-0.42168 1.1741-0.28112 0.28388-0.66973 0.42581-1.1658 0.42581-0.49472 0-0.88332-0.14194-1.1658-0.42581-0.28112-0.28388-0.42168-0.67524-0.42168-1.1741 0-0.50023 0.14056-0.89228 0.42168-1.1762 0.2825-0.28388 0.67111-0.42581 1.1658-0.42581zm-6.0337 0.055811h0.79582v3.0861h-0.79582v-3.0861zm6.0337 0.5209c-0.24253 0-0.43064 0.089573-0.56431 0.26872-0.13367 0.17914-0.2005 0.43133-0.2005 0.75654 0 0.32384 0.066835 0.57533 0.2005 0.75448 0.13367 0.17914 0.32177 0.26872 0.56431 0.26872 0.24391 0 0.4327-0.089573 0.56637-0.26872 0.13367-0.17914 0.2005-0.43064 0.2005-0.75448 0-0.32522-0.066836-0.5774-0.2005-0.75654-0.13367-0.17914-0.32246-0.26872-0.56637-0.26872zm3.8018 4.2509h0.31678v2.6805h-0.31678v-2.6805zm-11.305 0.70435c0.1401 0 0.25896 0.035772 0.35657 0.10697 0.098759 0.071198 0.17203 0.17455 0.21911 0.31006 0.079237-0.1424 0.17398-0.24747 0.28422-0.31523s0.23984-0.1018 0.38912-0.1018c0.20096 0 0.35599 0.070625 0.46509 0.21187 0.10909 0.1401 0.16381 0.33992 0.16381 0.59945v1.1648h-0.31884v-1.1545c0-0.18489-0.032728-0.32177-0.098185-0.41134-0.065457-0.089572-0.16536-0.13436-0.29972-0.13436-0.16422 0-0.29381 0.054202-0.38912 0.1633-0.095314 0.1091-0.14314 0.25815-0.14314 0.44648v1.0904h-0.31884v-1.1545c0-0.18604-0.032728-0.32292-0.098185-0.41134-0.065457-0.089572-0.16617-0.13436-0.30282-0.13436-0.16192 0-0.29071 0.055121-0.38602 0.16536-0.095314 0.1091-0.14314 0.25723-0.14314 0.44442v1.0904h-0.31833v-1.9296h0.31833v0.29972c0.072347-0.11828 0.15939-0.20521 0.26045-0.26148s0.22072-0.08475 0.35967-0.08475zm3.1869 0c0.27905 0 0.48748 0.072347 0.62528 0.21704 0.1378 0.14469 0.20671 0.36438 0.20671 0.65836v1.1007h-0.31678v-0.293c-0.072347 0.11713-0.16284 0.20366-0.27078 0.25993-0.10795 0.055122-0.23966 0.082683-0.39584 0.082683-0.19752 0-0.35519-0.055122-0.47232-0.16536-0.11598-0.11139-0.17363-0.25993-0.17363-0.44597 0-0.21704 0.072347-0.38068 0.21704-0.49093 0.14584-0.11024 0.36288-0.16536 0.65112-0.16536h0.44442v-0.031006c0-0.14584-0.048231-0.25821-0.14469-0.33745-0.095314-0.080386-0.22967-0.12092-0.40308-0.12092-0.11024 0-0.21796 0.013378-0.32246 0.039791-0.1045 0.026412-0.20481 0.066031-0.30127 0.11886v-0.29301c0.11598-0.044786 0.22835-0.077916 0.33745-0.099735 0.10909-0.022968 0.21549-0.034624 0.31884-0.034624zm2.4148 0c0.22163 0 0.38964 0.068902 0.50333 0.20671 0.11369 0.13666 0.17053 0.33819 0.17053 0.60461v1.1648h-0.31729v-1.1545c0-0.18259-0.035255-0.31907-0.10645-0.40979-0.071199-0.090721-0.178-0.13591-0.32039-0.13591-0.17111 0-0.30638 0.054202-0.40514 0.1633-0.098759 0.1091-0.14779 0.25815-0.14779 0.44648v1.0904h-0.31884v-1.9296h0.31884v0.29972c0.075792-0.11598 0.16445-0.20252 0.26665-0.25993 0.10335-0.057418 0.22221-0.0863 0.35657-0.0863zm4.2189 0c0.27905 0 0.48748 0.072347 0.62528 0.21704s0.20671 0.36438 0.20671 0.65836v1.1007h-0.31729v-0.293c-0.072347 0.11713-0.16232 0.20366-0.27027 0.25993-0.10795 0.055122-0.24018 0.082683-0.39636 0.082683-0.19752 0-0.35467-0.055122-0.4718-0.16536-0.11598-0.11139-0.17415-0.25993-0.17415-0.44597 0-0.21704 0.072347-0.38068 0.21704-0.49093 0.14584-0.11024 0.36288-0.16536 0.65112-0.16536h0.44442v-0.031006c0-0.14584-0.048231-0.25821-0.14469-0.33745-0.095314-0.080386-0.22967-0.12092-0.40308-0.12092-0.11024 0-0.21744 0.013378-0.32194 0.039791-0.1045 0.026412-0.20481 0.066031-0.30127 0.11886v-0.29301c0.11598-0.044786 0.22835-0.077916 0.33745-0.099735 0.1091-0.022968 0.21549-0.034624 0.31884-0.034624zm-2.9456 0.046509h0.31678v1.156c0 0.18259 0.035772 0.31999 0.10697 0.41186 0.071199 0.090721 0.178 0.13591 0.32039 0.13591 0.17111 0 0.30587-0.054719 0.40463-0.16381 0.099907-0.1091 0.14986-0.25764 0.14986-0.44597v-1.094h0.31678v1.9296h-0.31678v-0.29662c-0.07694 0.11713-0.16651 0.20458-0.26872 0.262-0.10106 0.05627-0.21859 0.084233-0.35295 0.084233-0.22164 0-0.39004-0.068902-0.50488-0.20671-0.11484-0.1378-0.17208-0.33934-0.17208-0.60461v-1.1679zm-3.4882 0.95963c-0.25609 0-0.43351 0.029283-0.53227 0.087849-0.098759 0.058567-0.14831 0.15848-0.14831 0.29972 0 0.11254 0.036576 0.20211 0.11007 0.26872 0.074644 0.065457 0.17587 0.098185 0.30334 0.098185 0.1757 0 0.31655-0.062011 0.4222-0.18604 0.1068-0.12517 0.1602-0.29094 0.1602-0.49764v-0.070796h-0.31523zm6.6332 0c-0.25608 0-0.43351 0.029283-0.53227 0.087849-0.09876 0.058567-0.1478 0.15848-0.1478 0.29972 0 0.11254 0.036576 0.20211 0.11007 0.26872 0.074644 0.065457 0.17587 0.098185 0.30334 0.098185 0.1757 0 0.31603-0.062011 0.42168-0.18604 0.1068-0.12517 0.1602-0.29094 0.1602-0.49764v-0.070796h-0.31523z" fill="#b0b0b0" stroke-width=".26482"/>
</svg>
