<?xml version="1.0" encoding="UTF-8"?>
<svg width="64" height="64" version="1.1" viewBox="0 0 16.933 16.933" xmlns="http://www.w3.org/2000/svg">
  <path d="m2.2608 3.7042c-0.66608 0-1.2025 0.53643-1.2025 1.2025v7.12c0 0.66608 0.53643 1.2025 1.2025 1.2025h12.412c0.66608 0 1.2025-0.53643 1.2025-1.2025v-7.12c0-0.66608-0.53643-1.2025-1.2025-1.2025h-12.412zm1.8159 0.90072h2.1477v0.60151h-1.3519v0.57464h1.2712v0.60151h-1.2712v0.70693h1.3973v0.60151h-2.1931v-3.0861zm2.6252 0h0.83096l0.67593 0.99425 0.67386-0.99425h0.83509l-1.0294 1.511 1.0707 1.5751h-0.82889l-0.7214-1.0542-0.7152 1.0542h-0.83302l1.0707-1.5751-1.0294-1.511zm3.5305 0h1.3208c0.39274 0 0.69384 0.087506 0.9033 0.26252 0.21084 0.17363 0.31626 0.42168 0.31626 0.74414 0 0.32384-0.10542 0.57326-0.31626 0.74827-0.20946 0.17363-0.51056 0.26045-0.9033 0.26045h-0.52503v1.0707h-0.79582v-3.0861zm0.79582 0.57671v0.86196h0.44028c0.15434 0 0.27354-0.037207 0.3576-0.11162 0.084059-0.075792 0.12609-0.18259 0.12609-0.32039 0-0.1378-0.042031-0.24391-0.12609-0.31833-0.084061-0.074414-0.20326-0.11162-0.3576-0.11162h-0.44028zm-1.8009 4.3982h0.31833v0.54777h0.65319v0.2465h-0.65319v1.0475c0 0.15733 0.021589 0.25804 0.064079 0.30282 0.043638 0.044786 0.13149 0.067179 0.26355 0.067179h0.32556v0.26562h-0.32556c-0.2446 0-0.41341-0.045705-0.50643-0.13643-0.093018-0.091869-0.13953-0.25804-0.13953-0.49919v-1.0475h-0.23254v-0.2465h0.23254v-0.54777zm-3.7155 0.50126c0.27905 0 0.48748 0.072347 0.62528 0.21704s0.20671 0.36438 0.20671 0.65836v1.1007h-0.31729v-0.293c-0.072347 0.11713-0.16232 0.20366-0.27027 0.25993-0.10795 0.055122-0.24018 0.082683-0.39636 0.082683-0.19752 0-0.35467-0.055122-0.47181-0.16536-0.11598-0.11139-0.17415-0.25993-0.17415-0.44597 0-0.21704 0.072347-0.38068 0.21704-0.49093 0.14584-0.11024 0.36288-0.16536 0.65112-0.16536h0.44442v-0.031006c0-0.14584-0.048231-0.25821-0.14469-0.33745-0.095314-0.080386-0.22967-0.12092-0.40308-0.12092-0.11024 0-0.21744 0.013378-0.32194 0.039791-0.1045 0.026412-0.20481 0.066031-0.30127 0.11886v-0.29301c0.11598-0.044786 0.22835-0.077916 0.33745-0.099735 0.10909-0.022968 0.21549-0.034624 0.31884-0.034624zm5.8513 0c0.27561 0 0.49225 0.089573 0.64957 0.26872s0.23564 0.42719 0.23564 0.74414c0 0.3158-0.078319 0.56385-0.23564 0.74414-0.15733 0.17914-0.37396 0.26872-0.64957 0.26872-0.27676 0-0.4938-0.089573-0.65112-0.26872-0.15618-0.18029-0.2341-0.42834-0.2341-0.74414 0-0.31695 0.077917-0.565 0.2341-0.74414 0.15733-0.17914 0.37437-0.26872 0.65112-0.26872zm-4.3992 0.046509h0.31678v1.156c0 0.18259 0.035772 0.31999 0.10697 0.41186 0.071199 0.090721 0.178 0.13591 0.32039 0.13591 0.17111 0 0.30587-0.054719 0.40463-0.16381 0.099908-0.1091 0.14986-0.25764 0.14986-0.44597v-1.094h0.31678v1.9296h-0.31678v-0.29662c-0.07694 0.11713-0.16651 0.20458-0.26872 0.262-0.10106 0.05627-0.21859 0.084233-0.35295 0.084233-0.22163 0-0.39004-0.068902-0.50488-0.20671-0.11484-0.1378-0.17208-0.33934-0.17208-0.60461v-1.1679zm4.3992 0.22221c-0.16996 0-0.30432 0.066777-0.40308 0.19999-0.09876 0.13206-0.14831 0.31333-0.14831 0.54415 0 0.23082 0.04915 0.41301 0.14676 0.54622 0.09876 0.13206 0.23352 0.19792 0.40463 0.19792 0.16881 0 0.30277-0.066261 0.40153-0.19947 0.098759-0.13321 0.14779-0.315 0.14779-0.54467 0-0.22852-0.049035-0.40939-0.14779-0.5426-0.09876-0.13436-0.23272-0.20154-0.40153-0.20154zm-5.6519 0.73742c-0.25609 0-0.43351 0.029283-0.53227 0.087849-0.098759 0.058567-0.14779 0.15848-0.14779 0.29972 0 0.11254 0.036576 0.20211 0.11007 0.26872 0.074644 0.065457 0.17587 0.098185 0.30334 0.098185 0.1757 0 0.31603-0.062011 0.42168-0.18604 0.1068-0.12517 0.1602-0.29094 0.1602-0.49764v-0.070796h-0.31523z" fill="#b0b0b0" stroke-width=".26482"/>
</svg>
